11/06/2010 16:52:41 - Caminho: /storage2/RETAIL/HOMOLOG/BI/CLIENTES/247_CLIENTE/RETAIL/MERCADO/CAMPANHA_HOMOLOGACAO_2010/BANCO_DE_TEMPLATES/TEMPLATE_7/
11/06/2010 16:52:41 - Novo nome: template_7_1-2.indd
11/06/2010 16:52:41 - Destino: /storage2/RETAIL/HOMOLOG/BI/CLIENTES/247_CLIENTE/RETAIL/MERCADO/CAMPANHA_HOMOLOGACAO_2010/BANCO_DE_TEMPLATES/TEMPLATE_7/template_7_1-2.indd
11/06/2010 16:52:41 - Criando diretorio: /storage2/RETAIL/HOMOLOG/BI/CLIENTES/247_CLIENTE/RETAIL/MERCADO/CAMPANHA_HOMOLOGACAO_2010/BANCO_DE_TEMPLATES/TEMPLATE_7/
11/06/2010 16:52:41 - Retornando links: Array
(
    [0] => Array
        (
            [name] => origem
            [value] => %2FVolumes%2Fsites_prod%2Fretail3%2Ffiles%2F%2Ftemplate_7_1-2.indd
        )

    [1] => Array
        (
            [name] => destino
            [value] => %2Fstorage2%2FRETAIL%2FHOMOLOG%2FBI%2FCLIENTES%2F247_CLIENTE%2FRETAIL%2FMERCADO%2FCAMPANHA_HOMOLOGACAO_2010%2FBANCO_DE_TEMPLATES%2FTEMPLATE_7%2Ftemplate_7_1-2.indd
        )

)

11/06/2010 16:59:26 - Caminho: /storage2/RETAIL/HOMOLOG/BI/CLIENTES/247_CLIENTE/RETAIL/MERCADO/CAMPANHA_HOMOLOGACAO_2010/BANCO_DE_TEMPLATES/TEMPLATE_7/
11/06/2010 16:59:26 - Novo nome: template_7_1-2.indd
11/06/2010 16:59:26 - Destino: /storage2/RETAIL/HOMOLOG/BI/CLIENTES/247_CLIENTE/RETAIL/MERCADO/CAMPANHA_HOMOLOGACAO_2010/BANCO_DE_TEMPLATES/TEMPLATE_7/template_7_1-2.indd
11/06/2010 16:59:26 - Criando diretorio: /storage2/RETAIL/HOMOLOG/BI/CLIENTES/247_CLIENTE/RETAIL/MERCADO/CAMPANHA_HOMOLOGACAO_2010/BANCO_DE_TEMPLATES/TEMPLATE_7/
11/06/2010 16:59:26 - Retornando links: Array
(
    [0] => Array
        (
            [name] => origem
            [value] => %2FVolumes%2Fsite_retail%2Fretail3%2Ffiles%2F%2Ftemplate_7_1-2.indd
        )

    [1] => Array
        (
            [name] => destino
            [value] => %2Fstorage2%2FRETAIL%2FHOMOLOG%2FBI%2FCLIENTES%2F247_CLIENTE%2FRETAIL%2FMERCADO%2FCAMPANHA_HOMOLOGACAO_2010%2FBANCO_DE_TEMPLATES%2FTEMPLATE_7%2Ftemplate_7_1-2.indd
        )

)

